<?xml version="1.0" encoding="UTF-8" standalone="no"?>
<svg
   xmlns:dc="http://purl.org/dc/elements/1.1/"
   xmlns:cc="http://creativecommons.org/ns#"
   xmlns:rdf="http://www.w3.org/1999/02/22-rdf-syntax-ns#"
   xmlns:svg="http://www.w3.org/2000/svg"
   xmlns="http://www.w3.org/2000/svg"
   xmlns:sodipodi="http://sodipodi.sourceforge.net/DTD/sodipodi-0.dtd"
   xmlns:inkscape="http://www.inkscape.org/namespaces/inkscape"
   version="1.1"
   inkscape:output_extension="org.inkscape.output.svg.inkscape"
   sodipodi:docname="interpolate-f07.svg"
   inkscape:version="1.0beta1 (08a003b, 2019-11-10)"
   sodipodi:version="0.32"
   viewBox="0 0 300 42"
   id="svg15699"
   height="42"
   width="300">
  <defs
     id="defs15701" />
  <sodipodi:namedview
     inkscape:lockguides="true"
     id="base"
     pagecolor="#ffffff"
     bordercolor="#666666"
     borderopacity="1.0"
     inkscape:pageopacity="0.0"
     inkscape:pageshadow="2"
     inkscape:zoom="1.4"
     inkscape:cx="160"
     inkscape:cy="21"
     inkscape:document-units="px"
     inkscape:current-layer="svg15699"
     inkscape:document-rotation="0"
     showgrid="false"
     units="px"
     showguides="true"
     inkscape:guide-bbox="true"
     inkscape:window-width="1866"
     inkscape:window-height="1016"
     inkscape:window-x="54"
     inkscape:window-y="27"
     inkscape:window-maximized="1" />
  <metadata
     id="metadata15704">
    <rdf:RDF>
      <cc:Work
         rdf:about="">
        <dc:format>image/svg+xml</dc:format>
        <dc:type
           rdf:resource="http://purl.org/dc/dcmitype/StillImage" />
        <dc:title></dc:title>
      </cc:Work>
    </rdf:RDF>
  </metadata>
  <g
     id="layer1"
     inkscape:groupmode="layer"
     inkscape:label="Layer 1">
    <g
       transform="translate(9.9999998,0.318569)"
       id="g2958">
      <g
         id="g2900">
        <path
           inkscape:connector-curvature="0"
           inkscape:export-ydpi="88.379997"
           inkscape:export-filename="C:\Documents and Settings\ryan\Desktop\interpolate1.png"
           inkscape:export-xdpi="88.379997"
           d="m 20.355957,2.0241537 c 10.11909,0 18.265505,8.1463983 18.265505,18.2654983 0,10.119101 -8.146415,18.265501 -18.265505,18.265501 -10.119089,0 -18.2655041,-8.1464 -18.2655041,-18.265501 0,-10.1191 8.1464151,-18.2654983 18.2655041,-18.2654983 z"
           id="path2614"
           style="fill:#00ccff;fill-opacity:1;stroke:#2e75ac;stroke-width:4.04816;stroke-linejoin:round;stroke-miterlimit:4;stroke-opacity:1" />
        <path
           inkscape:connector-curvature="0"
           inkscape:export-ydpi="88.379997"
           inkscape:export-filename="C:\Documents and Settings\ryan\Desktop\interpolate1.png"
           d="M 227.24076,9.3303527 245.50627,38.555153 263.77177,9.3303527 Z"
           inkscape:export-xdpi="88.379997"
           sodipodi:nodetypes="cccc"
           id="path2616"
           style="fill:#00ccff;fill-opacity:1;stroke:#2e75ac;stroke-width:4.04816;stroke-linejoin:round;stroke-miterlimit:4;stroke-opacity:1" />
        <rect
           height="2.9821236"
           x="-14.706497"
           y="-16.998554"
           transform="rotate(135.47779)"
           width="2.9821236"
           id="rect2618"
           style="opacity:1;fill:#00ff00;fill-opacity:1;stroke:none;stroke-width:1.2;stroke-linejoin:round;stroke-miterlimit:4;stroke-dasharray:none;stroke-opacity:1" />
        <rect
           height="2.9821236"
           x="-14.372758"
           y="-44.027813"
           transform="rotate(135.47779)"
           width="2.9821236"
           id="rect2620"
           style="opacity:1;fill:#cccccc;fill-opacity:1;stroke:none;stroke-width:1.2;stroke-linejoin:round;stroke-miterlimit:4;stroke-dasharray:none;stroke-opacity:1" />
        <rect
           height="2.9821236"
           x="10.792708"
           y="-43.678501"
           transform="rotate(135.47779)"
           width="2.9821236"
           id="rect2622"
           style="opacity:1;fill:#cccccc;fill-opacity:1;stroke:none;stroke-width:1.2;stroke-linejoin:round;stroke-miterlimit:4;stroke-dasharray:none;stroke-opacity:1" />
        <rect
           height="2.9821236"
           x="11.567855"
           y="-17.776814"
           transform="rotate(135.47779)"
           width="2.9821236"
           id="rect2624"
           style="opacity:1;fill:#cccccc;fill-opacity:1;stroke:none;stroke-width:1.2;stroke-linejoin:round;stroke-miterlimit:4;stroke-dasharray:none;stroke-opacity:1" />
        <rect
           height="2.9821236"
           x="192.26653"
           y="175.46033"
           transform="matrix(0.7129787,0.7011857,0.7011857,-0.7129787,0,0)"
           width="2.9821236"
           id="rect2626"
           style="opacity:1;fill:#cccccc;fill-opacity:1;stroke:none;stroke-width:1.2;stroke-linejoin:round;stroke-miterlimit:4;stroke-dasharray:none;stroke-opacity:1" />
        <rect
           height="2.9821236"
           x="168.02348"
           y="151.61829"
           transform="matrix(0.7129787,0.7011857,0.7011857,-0.7129787,0,0)"
           width="2.9821236"
           id="rect2628"
           style="opacity:1;fill:#00ff00;fill-opacity:1;stroke:none;stroke-width:1.2;stroke-linejoin:round;stroke-miterlimit:4;stroke-dasharray:none;stroke-opacity:1" />
        <rect
           height="2.9821236"
           x="199.83006"
           y="143.71111"
           transform="matrix(0.7129787,0.7011857,0.7011857,-0.7129787,0,0)"
           width="2.9821236"
           id="rect2630"
           style="opacity:1;fill:#cccccc;fill-opacity:1;stroke:none;stroke-width:1.2;stroke-linejoin:round;stroke-miterlimit:4;stroke-dasharray:none;stroke-opacity:1" />
      </g>
    </g>
  </g>
</svg>
