<?xml version="1.0" encoding="UTF-8" standalone="no"?>
<svg
   xmlns:dc="http://purl.org/dc/elements/1.1/"
   xmlns:cc="http://creativecommons.org/ns#"
   xmlns:rdf="http://www.w3.org/1999/02/22-rdf-syntax-ns#"
   xmlns:svg="http://www.w3.org/2000/svg"
   xmlns="http://www.w3.org/2000/svg"
   xmlns:sodipodi="http://sodipodi.sourceforge.net/DTD/sodipodi-0.dtd"
   xmlns:inkscape="http://www.inkscape.org/namespaces/inkscape"
   width="300"
   height="43"
   id="svg2928"
   viewBox="0 0 300 43"
   sodipodi:version="0.32"
   inkscape:version="1.0beta1 (459877fba3, 2019-11-14)"
   sodipodi:docname="basic-f05.svg"
   version="1.1">
  <defs
     id="defs3" />
  <sodipodi:namedview
     inkscape:window-maximized="0"
     inkscape:window-y="27"
     inkscape:window-x="54"
     inkscape:window-height="1053"
     inkscape:window-width="1866"
     inkscape:guide-bbox="true"
     showguides="true"
     units="px"
     showgrid="false"
     inkscape:document-rotation="0"
     inkscape:current-layer="layer1"
     inkscape:document-units="px"
     inkscape:cy="61.826914"
     inkscape:cx="51.319537"
     inkscape:zoom="1.4"
     inkscape:pageshadow="2"
     inkscape:pageopacity="0.0"
     borderopacity="1.0"
     bordercolor="#666666"
     pagecolor="#ffffff"
     id="base"
     inkscape:lockguides="true" />
  <metadata
     id="metadata4">
    <rdf:RDF>
      <cc:Work
         rdf:about="">
        <dc:format>image/svg+xml</dc:format>
        <dc:type
           rdf:resource="http://purl.org/dc/dcmitype/StillImage" />
        <dc:title />
      </cc:Work>
    </rdf:RDF>
  </metadata>
  <g
     inkscape:label="Layer 1"
     inkscape:groupmode="layer"
     id="layer1">
    <rect
       style="font-size:12px;fill:#0000ff;fill-opacity:0.75;fill-rule:evenodd;stroke:#000000;stroke-width:0.935232pt"
       id="rect894"
       width="151.14369"
       height="39.698006"
       x="74.428154"
       y="1.7362769" />
    <path
       style="color:#000000;font-family:'Liberation Sans',Arial,sans-serif;display:inline;overflow:visible;visibility:visible;fill:#ff0000;fill-opacity:0.75;fill-rule:evenodd;stroke:#000000;stroke-width:0.486928pt;stroke-linecap:butt;stroke-linejoin:miter;stroke-miterlimit:4;stroke-dashoffset:0;stroke-opacity:1;marker:none"
       d="m 141.19351,16.261637 c 4.88155,4.881554 6.74713,10.930541 4.16688,13.510791 -2.58025,2.580249 -8.62924,0.714674 -13.51079,-4.16688 -4.88156,-4.881554 -6.74713,-10.93054 -4.16688,-13.51079 2.58025,-2.5802495 8.62924,-0.714675 13.51079,4.166879 z"
       id="path1290"
       inkscape:connector-curvature="0" />
    <path
       style="color:#000000;font-family:'Liberation Sans',Arial,sans-serif;display:inline;overflow:visible;visibility:visible;fill:#ff0000;fill-opacity:0.75;fill-rule:evenodd;stroke:#000000;stroke-width:0.486928pt;stroke-linecap:butt;stroke-linejoin:miter;stroke-miterlimit:4;stroke-dashoffset:0;stroke-opacity:1;marker:none"
       d="m 168.87208,16.618764 c 4.88155,4.881554 6.74712,10.930541 4.16687,13.510791 -2.58025,2.580249 -8.62923,0.714674 -13.51079,-4.166879 -4.88155,-4.881555 -6.74712,-10.930541 -4.16688,-13.510791 2.58025,-2.5802494 8.62924,-0.714675 13.5108,4.166879 z"
       id="path1292"
       inkscape:connector-curvature="0" />
  </g>
</svg>
