<?xml version="1.0" encoding="UTF-8" standalone="no"?>
<svg
   xmlns:dc="http://purl.org/dc/elements/1.1/"
   xmlns:cc="http://creativecommons.org/ns#"
   xmlns:rdf="http://www.w3.org/1999/02/22-rdf-syntax-ns#"
   xmlns:svg="http://www.w3.org/2000/svg"
   xmlns="http://www.w3.org/2000/svg"
   xmlns:sodipodi="http://sodipodi.sourceforge.net/DTD/sodipodi-0.dtd"
   xmlns:inkscape="http://www.inkscape.org/namespaces/inkscape"
   version="1.1"
   width="300"
   height="47"
   viewBox="0 0 300 47"
   id="svg1974"
   sodipodi:version="0.32"
   inkscape:version="1.0beta1 (a4ee55bc41, 2019-11-15)"
   sodipodi:docname="advanced-f07.svg">
  <defs
     id="defs3" />
  <sodipodi:namedview
     inkscape:lockguides="true"
     id="base"
     pagecolor="#ffffff"
     bordercolor="#666666"
     borderopacity="1.0"
     inkscape:pageopacity="0.0"
     inkscape:pageshadow="2"
     inkscape:zoom="1.4"
     inkscape:cx="204.70037"
     inkscape:cy="-116.82844"
     inkscape:document-units="px"
     inkscape:current-layer="layer1"
     inkscape:document-rotation="0"
     showgrid="false"
     units="px"
     showguides="true"
     inkscape:guide-bbox="true"
     inkscape:window-width="1866"
     inkscape:window-height="1053"
     inkscape:window-x="54"
     inkscape:window-y="27"
     inkscape:window-maximized="0" />
  <metadata
     id="metadata4">
    <rdf:RDF>
      <cc:Work
         rdf:about="">
        <dc:format>image/svg+xml</dc:format>
        <dc:type
           rdf:resource="http://purl.org/dc/dcmitype/StillImage" />
        <dc:title />
      </cc:Work>
    </rdf:RDF>
  </metadata>
  <g
     inkscape:label="Layer 1"
     inkscape:groupmode="layer"
     id="layer1">
    <path
       inkscape:connector-curvature="0"
       style="fill:none;fill-opacity:0.75;fill-rule:evenodd;stroke:#000000;stroke-width:9;stroke-linecap:butt;stroke-linejoin:miter;stroke-opacity:1"
       d="M 47.663079,34.7083 C 58.32133,22.5354 68.838839,10.3132 84.340519,6.4269 c 9.292393,-2.3296 11.78709,2.3947 4.860865,10.1636 -5.164433,5.7927 -10.411459,10.1524 -12.815009,16.7921 -2.972643,8.2119 2.885748,9.4864 11.489319,7.9541 8.468162,-1.5081 14.083676,-8.5052 19.885356,-15.4664 4.2144,-5.0566 8.7741,-5.2626 10.60553,-0.8838 7.10479,15.9305 20.13009,0.9771 22.09484,-0.4419"
       id="path1430"
       sodipodi:nodetypes="csssssss" />
    <path
       inkscape:connector-curvature="0"
       style="fill:#000000;fill-opacity:1;fill-rule:evenodd;stroke:none;stroke-width:9;stroke-linecap:butt;stroke-linejoin:miter;stroke-opacity:1"
       d="m 199.67943,0.0677 c -1.23727,0.1038 -2.51643,0.3156 -3.875,0.6562 -8.59733,2.1554 -15.75498,6.6404 -22,12 -6.24502,5.3596 -11.64807,11.6107 -16.96875,17.6875 l 6.75,5.9375 c 5.33758,-6.0961 10.50877,-12.0462 16.0625,-16.8125 5.55372,-4.7663 11.43938,-8.3316 18.34375,-10.0625 1.26408,-0.3169 1.79585,-0.2322 2.5,-0.25 -0.42543,0.8115 -0.91325,1.7071 -2.09375,3.0312 -2.45164,2.7499 -5.08791,5.295 -7.53125,8.1563 -2.44334,2.8613 -4.70505,6.1161 -6.15625,10.125 -0.91687,2.5328 -1.36473,4.9227 -0.84375,7.375 0.26049,1.2262 0.78386,2.4374 1.5625,3.4375 0.77864,1.0001 1.76604,1.7724 2.78125,2.3125 2.03041,1.0801 4.13967,1.3658 6.28125,1.4063 2.14158,0.0404 4.37504,-0.2076 6.71875,-0.625 5.24775,-0.9346 9.54957,-3.6005 13.125,-6.75 3.57542,-3.1496 6.55425,-6.8218 9.4375,-10.2813 0.80771,-0.9691 1.56462,-1.5838 2.125,-1.9375 0.44557,-0.2813 0.62372,-0.2855 0.75,-0.3125 0.0444,0.0576 0.0216,0.0029 0.125,0.25 v 0.0313 l 0.0312,0.0624 c 1.0456,2.3445 2.25712,4.2796 3.71875,5.8438 1.46163,1.5642 3.2003,2.7424 5.03125,3.4062 1.83095,0.6639 3.71828,0.8102 5.4375,0.625 1.71921,-0.1851 3.26839,-0.6904 4.6875,-1.3124 2.83821,-1.2442 5.15654,-3.0025 6.9375,-4.5 0.89048,-0.7488 1.65254,-1.4477 2.21875,-1.9688 0.2831,-0.2605 0.52513,-0.4796 0.6875,-0.625 0.16236,-0.1454 0.28418,-0.2087 0.125,-0.0938 l -5.28125,-7.3124 c -0.40478,0.2923 -0.596,0.4969 -0.84375,0.7187 -0.24776,0.2218 -0.50629,0.4345 -0.78125,0.6875 -0.54994,0.5061 -1.18831,1.115 -1.90625,1.7188 -1.4359,1.2074 -3.1982,2.4447 -4.75,3.125 -0.77591,0.3401 -1.49241,0.5323 -2.0625,0.5937 -0.57009,0.0614 -0.98627,0.0273 -1.40625,-0.125 -0.41998,-0.1523 -0.88174,-0.4321 -1.5,-1.0937 -0.61827,-0.6617 -1.36316,-1.7369 -2.09375,-3.375 -0.71919,-1.7196 -1.81868,-3.1872 -3.40625,-4.2813 -1.58757,-1.0941 -3.58039,-1.6022 -5.4375,-1.4687 -1.85711,0.1334 -3.55665,0.811 -5.09375,1.7812 -1.5371,0.9702 -2.95051,2.2533 -4.25,3.8125 -2.91843,3.5017 -5.6377,6.8149 -8.4375,9.2813 -2.79981,2.4663 -5.56084,4.0514 -8.78125,4.625 -1.95808,0.3487 -3.68502,0.5242 -4.96875,0.5 -1.13774,-0.0215 -1.68509,-0.2152 -1.9375,-0.3126 -0.0114,-0.2031 -0.066,-0.7652 0.4375,-2.1562 0.95234,-2.6308 2.49032,-4.9171 4.5625,-7.3438 2.07217,-2.4266 4.69346,-4.9572 7.40625,-8 1.97161,-2.2114 3.40094,-4.3132 4.28125,-6.5312 0.44015,-1.109 0.7547,-2.2601 0.8125,-3.5 0.0578,-1.2399 -0.171,-2.5773 -0.78125,-3.8125 -0.61026,-1.2352 -1.61867,-2.2794 -2.71875,-2.9687 -1.10008,-0.6894 -2.2635,-1.0873 -3.4375,-1.2813 -1.174,-0.194 -2.35649,-0.1976 -3.59375,-0.0937 z"
       id="path1432" />
  </g>
</svg>
